{
    "l10n": {
        "accessibilityCanvasLabel": "Presentation canvas. Use left and right arrow to move between slides.",
        "accessibilitySlideNavigationExplanation": "Use left and right arrow to change slide in that direction whenever canvas is selected.",
        "author": "Author",
        "badScore": "You got @percent correct.",
        "containsCompleted": "@slideName contains completed interaction",
        "containsIncorrectAnswers": "@slideName has incorrect answers",
        "containsNotCompleted": "@slideName contains not completed interaction",
        "containsOnlyCorrect": "@slideName only has correct answers",
        "copyright": "Rights of use",
        "currentSlide": "Current slide",
        "exitFullscreen": "Exit fullscreen",
        "exportAnswers": "Export text",
        "fullscreen": "Fullscreen",
        "goodScore": "Congratulations! You got @percent correct!",
        "hideKeywords": "Hide keywords list",
        "lastSlide": "Last slide",
        "license": "License",
        "lisence": "License",
        "maxScore": "Max Score",
        "nextSlide": "Next slide",
        "noTitle": "No title",
        "okScore": "Nice effort! You got @percent correct!",
        "prevSlide": "Previous slide",
        "printAllSlides": "Print all slides",
        "printCurrentSlide": "Print current slide",
        "printIngress": "How would you like to print this presentation?",
        "printTitle": "Print",
        "retry": "Retry",
        "scoreMessage": "You achieved:",
        "shareFacebook": "Share on Facebook",
        "shareGoogle": "Share on Google+",
        "shareTwitter": "Share on Twitter",
        "showKeywords": "Show keywords list",
        "showSolutions": "Show solutions",
        "slide": "Slide",
        "slideCount": "Slide @index of @total",
        "solutionModeText": "Solution Mode",
        "solutionModeTitle": "Exit solution mode",
        "solutionsButtonTitle": "Show comments",
        "summary": "Summary",
        "summaryMultipleTaskText": "Multiple tasks",
        "title": "Title",
        "total": "TOTAL",
        "yourScore": "Your Score"
    },
    "override": {
        "activeSurface": false,
        "enablePrintButton": false,
        "hideSummarySlide": false,
        "social": {
            "facebookShare": {
                "quote": "I scored @percentage on a task at @currentpageurl.",
                "url": "@currentpageurl"
            },
            "googleShareUrl": "@currentpageurl",
            "showFacebookShare": true,
            "showGoogleShare": false,
            "showTwitterShare": false,
            "twitterShare": {
                "hashtags": "h5p, course",
                "statement": "I scored @percentage on a task at @currentpageurl.",
                "url": "@currentpageurl"
            }
        }
    },
    "presentation": {
        "globalBackgroundSelector": {},
        "keywordListAlwaysShow": false,
        "keywordListAutoHide": false,
        "keywordListEnabled": true,
        "keywordListOpacity": 90,
        "slides": [
            {
                "elements": [],
                "keywords": [],
                "slideBackgroundSelector": {}
            }
        ]
    }
}