{
    "l10n": {
        "accessibilityCanvasLabel": "Presentation canvas. Use left and right arrow to move between slides.",
        "accessibilitySlideNavigationExplanation": "Use left and right arrow to change slide in that direction whenever canvas is selected.",
        "author": "Author",
        "badScore": "You got @percent correct.",
        "containsCompleted": "@slideName contains completed interaction",
        "containsIncorrectAnswers": "@slideName has incorrect answers",
        "containsNotCompleted": "@slideName contains not completed interaction",
        "containsOnlyCorrect": "@slideName only has correct answers",
        "copyright": "Rights of use",
        "currentSlide": "Current slide",
        "exitFullscreen": "Exit fullscreen",
        "exportAnswers": "Export text",
        "fullscreen": "Fullscreen",
        "goodScore": "Congratulations! You got @percent correct!",
        "hideKeywords": "Hide keywords list",
        "lastSlide": "Last slide",
        "license": "License",
        "lisence": "License",
        "maxScore": "Max Score",
        "nextSlide": "Next slide",
        "noTitle": "No title",
        "okScore": "Nice effort! You got @percent correct!",
        "prevSlide": "Previous slide",
        "printAllSlides": "Print all slides",
        "printCurrentSlide": "Print current slide",
        "printIngress": "How would you like to print this presentation?",
        "printTitle": "Print",
        "retry": "Retry",
        "scoreMessage": "You achieved:",
        "shareFacebook": "Share on Facebook",
        "shareGoogle": "Share on Google+",
        "shareTwitter": "Share on Twitter",
        "showKeywords": "Show keywords list",
        "showSolutions": "Show solutions",
        "slide": "Slide",
        "slideCount": "Slide @index of @total",
        "solutionModeText": "Solution Mode",
        "solutionModeTitle": "Exit solution mode",
        "solutionsButtonTitle": "Show comments",
        "summary": "Summary",
        "summaryMultipleTaskText": "Multiple tasks",
        "title": "Title",
        "total": "TOTAL",
        "yourScore": "Your Score"
    },
    "override": {
        "activeSurface": false,
        "enablePrintButton": false,
        "hideSummarySlide": false,
        "social": {
            "facebookShare": {
                "quote": "I scored @percentage on a task at @currentpageurl.",
                "url": "@currentpageurl"
            },
            "googleShareUrl": "@currentpageurl",
            "showFacebookShare": true,
            "showGoogleShare": false,
            "showTwitterShare": false,
            "twitterShare": {
                "hashtags": "h5p, course",
                "statement": "I scored @percentage on a task at @currentpageurl.",
                "url": "@currentpageurl"
            }
        }
    },
    "presentation": {
        "globalBackgroundSelector": {
            "fillGlobalBackground": "#ffffff"
        },
        "keywordListAlwaysShow": false,
        "keywordListAutoHide": false,
        "keywordListEnabled": true,
        "keywordListOpacity": 90,
        "slides": [
            {
                "elements": [
                    {
                        "action": {
                            "library": "H5P.Image 1.0",
                            "metadata": {
                                "contentType": "Image",
                                "license": "U"
                            },
                            "params": {
                                "contentName": "Image",
                                "file": {
                                    "copyright": {
                                        "license": "U"
                                    },
                                    "height": 873,
                                    "mime": "image/png",
                                    "path": "images/file-5c93b53033ac3.png",
                                    "width": 1623
                                }
                            },
                            "subContentId": "4333b3d8-9f31-412b-9d6b-26310b1ad24a"
                        },
                        "alwaysDisplayComments": false,
                        "backgroundOpacity": 0,
                        "buttonSize": "big",
                        "displayAsButton": false,
                        "goToSlideType": "specified",
                        "height": 69.940476190476,
                        "invisible": false,
                        "solution": "",
                        "width": 66.06334841629,
                        "x": 0,
                        "y": 0
                    },
                    {
                        "action": {
                            "library": "H5P.Image 1.0",
                            "metadata": {
                                "contentType": "Image",
                                "license": "U"
                            },
                            "params": {
                                "contentName": "Image",
                                "file": {
                                    "copyright": {
                                        "license": "U"
                                    },
                                    "height": 674,
                                    "mime": "image/png",
                                    "path": "images/file-5c93b514c688d.png",
                                    "width": 670
                                }
                            },
                            "subContentId": "131cfce5-cbe6-46ab-90b9-c15aabba5e5e"
                        },
                        "alwaysDisplayComments": false,
                        "backgroundOpacity": 0,
                        "buttonSize": "big",
                        "displayAsButton": false,
                        "goToSlideType": "specified",
                        "height": 29.464285714286,
                        "invisible": false,
                        "solution": "",
                        "width": 14.781297134238,
                        "x": 0,
                        "y": 0
                    },
                    {
                        "action": {
                            "library": "H5P.Image 1.0",
                            "metadata": {
                                "contentType": "Image",
                                "license": "U"
                            },
                            "params": {
                                "contentName": "Image",
                                "file": {
                                    "copyright": {
                                        "license": "U"
                                    },
                                    "height": 1623,
                                    "mime": "image/png",
                                    "path": "images/file-5c93b573541c0.png",
                                    "width": 873
                                }
                            },
                            "subContentId": "34b26476-561f-4929-8908-8191d78f977c"
                        },
                        "alwaysDisplayComments": false,
                        "backgroundOpacity": 0,
                        "buttonSize": "big",
                        "displayAsButton": false,
                        "goToSlideType": "specified",
                        "height": 96.428571428571,
                        "invisible": false,
                        "solution": "",
                        "width": 26.395173453997,
                        "x": 70.889894419306,
                        "y": 2.9761904761905
                    },
                    {
                        "action": {
                            "library": "H5P.Image 1.0",
                            "metadata": {
                                "contentType": "Image",
                                "license": "U"
                            },
                            "params": {
                                "contentName": "Image",
                                "file": {
                                    "copyright": {
                                        "license": "U"
                                    },
                                    "height": 125,
                                    "mime": "image/png",
                                    "path": "images/file-5c93b59c7bbbc.png",
                                    "width": 483
                                }
                            },
                            "subContentId": "32d3b877-6a66-4a60-b019-b35f46a17268"
                        },
                        "alwaysDisplayComments": false,
                        "backgroundOpacity": 0,
                        "buttonSize": "big",
                        "displayAsButton": false,
                        "goToSlideType": "specified",
                        "height": 14.880952380952,
                        "invisible": false,
                        "solution": "",
                        "width": 30.316742081448,
                        "x": 69.381598793363,
                        "y": 83.807738095238
                    },
                    {
                        "action": {
                            "library": "H5P.Image 1.0",
                            "metadata": {
                                "contentType": "Image",
                                "license": "U"
                            },
                            "params": {
                                "contentName": "Image",
                                "file": {
                                    "copyright": {
                                        "license": "U"
                                    },
                                    "height": 467,
                                    "mime": "image/png",
                                    "path": "images/file-5c93b5c7df8bc.png",
                                    "width": 1845
                                }
                            },
                            "subContentId": "f6f27dce-2484-4c6a-9a2d-75ab42165924"
                        },
                        "alwaysDisplayComments": false,
                        "backgroundOpacity": 0,
                        "buttonSize": "big",
                        "displayAsButton": false,
                        "goToSlideType": "specified",
                        "height": 40,
                        "invisible": false,
                        "solution": "",
                        "width": 80.003026672771,
                        "x": 10.558069381599,
                        "y": 32.738095238095
                    },
                    {
                        "action": {
                            "library": "H5P.AdvancedText 1.1",
                            "metadata": {
                                "authors": [],
                                "changes": [],
                                "contentType": "Text",
                                "extraTitle": "Sem título",
                                "license": "U",
                                "title": "Sem título"
                            },
                            "params": {
                                "text": "<h2><span style=\"font-size:1.75em;\">Segurança da Informação</span></h2>\n"
                            },
                            "subContentId": "346f3e04-6978-4def-934a-4378789ea639"
                        },
                        "alwaysDisplayComments": false,
                        "backgroundOpacity": 0,
                        "buttonSize": "big",
                        "displayAsButton": false,
                        "goToSlideType": "specified",
                        "height": 11.309523809524,
                        "invisible": false,
                        "solution": "",
                        "width": 70.588235294118,
                        "x": 16.59125188537,
                        "y": 35.714285714286
                    }
                ],
                "slideBackgroundSelector": {}
            },
            {
                "elements": [
                    {
                        "action": {
                            "library": "H5P.Image 1.0",
                            "metadata": {
                                "contentType": "Image",
                                "license": "U"
                            },
                            "params": {
                                "contentName": "Image",
                                "file": {
                                    "copyright": {
                                        "license": "U"
                                    },
                                    "height": 960,
                                    "mime": "image/png",
                                    "path": "images/file-5c93ba6ed2daa.png",
                                    "width": 1474
                                }
                            },
                            "subContentId": "717299aa-de3a-4545-9841-b5483cafbcc3"
                        },
                        "alwaysDisplayComments": false,
                        "backgroundOpacity": 0,
                        "buttonSize": "big",
                        "displayAsButton": false,
                        "goToSlideType": "specified",
                        "height": 69.642857142857,
                        "invisible": false,
                        "solution": "",
                        "width": 54.147812971342,
                        "x": 45.550527903469,
                        "y": 29.761904761905
                    },
                    {
                        "action": {
                            "library": "H5P.Image 1.0",
                            "metadata": {
                                "contentType": "Image",
                                "license": "U"
                            },
                            "params": {
                                "contentName": "Image",
                                "file": {
                                    "copyright": {
                                        "license": "U"
                                    },
                                    "height": 146,
                                    "mime": "image/png",
                                    "path": "images/file-5c93b8a8433ed.png",
                                    "width": 632
                                }
                            },
                            "subContentId": "469c42dc-d2aa-411c-8e21-b8aea64a008f"
                        },
                        "alwaysDisplayComments": false,
                        "backgroundOpacity": 0,
                        "buttonSize": "big",
                        "displayAsButton": false,
                        "goToSlideType": "specified",
                        "height": 14.285714285714,
                        "invisible": false,
                        "solution": "",
                        "width": 31.975867269985,
                        "x": 0,
                        "y": 0
                    },
                    {
                        "action": {
                            "library": "H5P.AdvancedText 1.1",
                            "metadata": {
                                "authors": [],
                                "changes": [],
                                "contentType": "Text",
                                "extraTitle": "Sem título",
                                "license": "U",
                                "title": "Sem título"
                            },
                            "params": {
                                "text": "<p><span style=\"font-size:2.25em;\"><span style=\"color:#ffffff;\">Ficha Técnica</span></span></p>\n"
                            },
                            "subContentId": "f1b499dd-93ac-46f3-99a5-541aaf229c93"
                        },
                        "alwaysDisplayComments": false,
                        "backgroundOpacity": 0,
                        "buttonSize": "big",
                        "displayAsButton": false,
                        "goToSlideType": "specified",
                        "height": 11.309523809524,
                        "invisible": false,
                        "solution": "",
                        "width": 28.355957767722,
                        "x": 1.2066365007541,
                        "y": 1.7764136904762
                    },
                    {
                        "action": {
                            "library": "H5P.Image 1.0",
                            "metadata": {
                                "contentType": "Image",
                                "license": "U"
                            },
                            "params": {
                                "contentName": "Image",
                                "file": {
                                    "copyright": {
                                        "license": "U"
                                    },
                                    "height": 37,
                                    "mime": "image/png",
                                    "path": "images/file-5c93ba47c1038.png",
                                    "width": 96
                                }
                            },
                            "subContentId": "746c614c-dadb-4ccc-821d-99a86eb28075"
                        },
                        "alwaysDisplayComments": false,
                        "backgroundOpacity": 0,
                        "buttonSize": "big",
                        "displayAsButton": false,
                        "goToSlideType": "specified",
                        "height": 11.011904761905,
                        "invisible": false,
                        "solution": "",
                        "width": 14.464348995813,
                        "x": 0,
                        "y": 88.392857142857
                    },
                    {
                        "action": {
                            "library": "H5P.AdvancedText 1.1",
                            "metadata": {
                                "authors": [],
                                "changes": [],
                                "contentType": "Text",
                                "extraTitle": "Sem título",
                                "license": "U",
                                "title": "Sem título"
                            },
                            "params": {
                                "text": "<p><span><span><span><span><span><span><span style=\"color:#262626\"><span>Este material foi produzido por </span></span></span></span><span><span><span style=\"color:#262626\"><span>conteudista</span></span></span></span><span><span><span style=\"color:#262626\"><span>(s) da Universidade </span></span></span></span><span><span><span style=\"color:#262626\"><span>de Brasília </span></span></span></span><span><span><span style=\"color:#262626\"><span>(UnB) exclusivamente para a Escola do Trabalhador.</span></span></span></span></span></span></span></span></p>\n\n<p><span><span><span><span><span><span><span style=\"color:#262626\"><span>Licença de uso e compartilhamento </span></span></span></span><span><span><span style=\"color:#262626\"><span>Creative</span></span></span></span> <span><span><span style=\"color:#262626\"><span>Commons</span></span></span></span><span><span><span style=\"color:#262626\"><span> Atribuição-Não </span></span></span></span><span><span><span style=\"color:#262626\"><span>Comercial – Sem Derivações 4.0 Internacional.</span></span></span></span></span></span></span></span></p>\n\n<p><span><span><span><span><span><span><span style=\"color:#262626\"><span>http://creativecommons.org/licenses/by-nc-nd/4.0/</span></span></span></span></span></span></span></span></p>\n"
                            },
                            "subContentId": "2bd1a954-1190-47a8-8e66-fd1c733bc620"
                        },
                        "alwaysDisplayComments": false,
                        "backgroundOpacity": 0,
                        "buttonSize": "big",
                        "displayAsButton": false,
                        "goToSlideType": "specified",
                        "height": 8.3333333333333,
                        "invisible": false,
                        "solution": "",
                        "width": 84.162895927602,
                        "x": 15.082956259427,
                        "y": 89.090476190476
                    },
                    {
                        "action": {
                            "library": "H5P.AdvancedText 1.1",
                            "metadata": {
                                "authors": [],
                                "changes": [],
                                "contentType": "Text",
                                "extraTitle": "Sem título",
                                "license": "U",
                                "title": "Sem título"
                            },
                            "params": {
                                "text": "<p><span style=\"font-size:1em;\"><strong><span style=\"color:#262626\">MINISTÉRIO DE TRABALHO</span></strong></span></p>\n\n<p><span style=\"font-size:1em;\"><strong><span style=\"color:#262626\">Ministro do Trabalho</span></strong></span></p>\n\n<p><span style=\"font-size:1em;\"><span style=\"color:#262626\">Ronaldo Nogueira</span></span></p>\n\n<p><span style=\"font-size:1em;\"><strong><span style=\"color:#262626\">Secretário de Políticas Públicas de Emprego</span></strong><br>\n<span style=\"color:#262626\">Leonardo José Arantes</span></span></p>\n\n<p><span style=\"font-size:1em;\"><strong><span style=\"color:#262626\">Diretor do Departamento de Políticas de Empregabilidade</span></strong><br>\n<span style=\"color:#262626\">Higino Brito Vieira</span></span></p>\n"
                            },
                            "subContentId": "1129ea95-d5c2-4228-b0bf-a1a7f46c7b08"
                        },
                        "alwaysDisplayComments": false,
                        "backgroundOpacity": 0,
                        "buttonSize": "big",
                        "displayAsButton": false,
                        "goToSlideType": "specified",
                        "height": 70.833333333333,
                        "invisible": false,
                        "solution": "",
                        "width": 32.880844645551,
                        "x": 0,
                        "y": 14.84375
                    },
                    {
                        "action": {
                            "library": "H5P.AdvancedText 1.1",
                            "metadata": {
                                "authors": [],
                                "changes": [],
                                "contentType": "Text",
                                "extraTitle": "Sem título",
                                "license": "U",
                                "title": "Sem título"
                            },
                            "params": {
                                "text": "<p><span style=\"font-size:1em;\"><strong><span style=\"color:#262626\">Chefe da Assessoria de Comunicação Social (ASCOM)</span></strong></span></p>\n\n<p><span style=\"font-size:1em;\"><span style=\"color:#262626\">Angelo Marcio Fernandes de Sousa Filho</span></span></p>\n\n<p><span style=\"font-size:1em;\"><strong><span style=\"color:#262626\">UNIVERSIDADE DE BRASÍLIA</span></strong></span></p>\n\n<p><span style=\"font-size:1em;\"><strong><span style=\"color:#262626\">Reitora</span></strong></span></p>\n\n<p><span style=\"font-size:1em;\"><span style=\"color:#262626\">Márcia Abrahão Moura</span></span></p>\n\n<p><span style=\"font-size:1em;\"><strong><span style=\"color:#262626\">Vice-reitor</span></strong></span></p>\n\n<p><span style=\"font-size:1em;\"><span style=\"color:#262626\">Enrique Huelva</span></span></p>\n"
                            },
                            "subContentId": "f85f023d-fae3-4b40-9962-bc8a2f37dd49"
                        },
                        "alwaysDisplayComments": false,
                        "backgroundOpacity": 0,
                        "buttonSize": "big",
                        "displayAsButton": false,
                        "goToSlideType": "specified",
                        "height": 70.833333333333,
                        "invisible": false,
                        "solution": "",
                        "width": 32.880844645551,
                        "x": 33.182503770739,
                        "y": 14.880952380952
                    },
                    {
                        "action": {
                            "library": "H5P.AdvancedText 1.1",
                            "metadata": {
                                "authors": [],
                                "changes": [],
                                "contentType": "Text",
                                "extraTitle": "Sem título",
                                "license": "U",
                                "title": "Sem título"
                            },
                            "params": {
                                "text": "<p><span style=\"font-size:1em;\"><strong><span style=\"color:#262626\">Decana de Pesquisa e Inovação</span></strong></span></p>\n\n<p><span style=\"font-size:1em;\"><span style=\"color:#262626\">Maria Emília Machado Telles Walter</span></span></p>\n\n<p><span style=\"font-size:1em;\"><strong><span style=\"color:#262626\">Decana de Extensão</span></strong></span></p>\n\n<p><span style=\"font-size:1em;\"><span style=\"color:#262626\">Olgamir</span> <span style=\"color:#262626\">Amancia</span></span></p>\n"
                            },
                            "subContentId": "2fe303a5-fab1-4238-a6d7-8161492e2e9e"
                        },
                        "alwaysDisplayComments": false,
                        "backgroundOpacity": 0,
                        "buttonSize": "big",
                        "displayAsButton": false,
                        "goToSlideType": "specified",
                        "height": 67.857142857143,
                        "invisible": false,
                        "solution": "",
                        "width": 31.372549019608,
                        "x": 67.873303167421,
                        "y": 14.880952380952
                    }
                ],
                "slideBackgroundSelector": {}
            },
            {
                "elements": [
                    {
                        "action": {
                            "library": "H5P.Image 1.0",
                            "metadata": {
                                "contentType": "Image",
                                "license": "U"
                            },
                            "params": {
                                "contentName": "Image",
                                "file": {
                                    "copyright": {
                                        "license": "U"
                                    },
                                    "height": 960,
                                    "mime": "image/png",
                                    "path": "images/file-5c93ba6ed2daa.png",
                                    "width": 1474
                                }
                            },
                            "subContentId": "717299aa-de3a-4545-9841-b5483cafbcc3"
                        },
                        "alwaysDisplayComments": false,
                        "backgroundOpacity": 0,
                        "buttonSize": "big",
                        "displayAsButton": false,
                        "goToSlideType": "specified",
                        "height": 69.642857142857,
                        "invisible": false,
                        "solution": "",
                        "width": 54.147812971342,
                        "x": 45.550527903469,
                        "y": 29.761904761905
                    },
                    {
                        "action": {
                            "library": "H5P.Image 1.0",
                            "metadata": {
                                "contentType": "Image",
                                "license": "U"
                            },
                            "params": {
                                "contentName": "Image",
                                "file": {
                                    "copyright": {
                                        "license": "U"
                                    },
                                    "height": 146,
                                    "mime": "image/png",
                                    "path": "images/file-5c93b8a8433ed.png",
                                    "width": 632
                                }
                            },
                            "subContentId": "469c42dc-d2aa-411c-8e21-b8aea64a008f"
                        },
                        "alwaysDisplayComments": false,
                        "backgroundOpacity": 0,
                        "buttonSize": "big",
                        "displayAsButton": false,
                        "goToSlideType": "specified",
                        "height": 14.285714285714,
                        "invisible": false,
                        "solution": "",
                        "width": 31.975867269985,
                        "x": 0,
                        "y": 0
                    },
                    {
                        "action": {
                            "library": "H5P.AdvancedText 1.1",
                            "metadata": {
                                "authors": [],
                                "changes": [],
                                "contentType": "Text",
                                "extraTitle": "Sem título",
                                "license": "U",
                                "title": "Sem título"
                            },
                            "params": {
                                "text": "<p><span style=\"font-size:2.25em;\"><span style=\"color:#ffffff;\">Ficha Técnica</span></span></p>\n"
                            },
                            "subContentId": "f1b499dd-93ac-46f3-99a5-541aaf229c93"
                        },
                        "alwaysDisplayComments": false,
                        "backgroundOpacity": 0,
                        "buttonSize": "big",
                        "displayAsButton": false,
                        "goToSlideType": "specified",
                        "height": 11.309523809524,
                        "invisible": false,
                        "solution": "",
                        "width": 28.355957767722,
                        "x": 1.2066365007541,
                        "y": 1.7764136904762
                    },
                    {
                        "action": {
                            "library": "H5P.Image 1.0",
                            "metadata": {
                                "contentType": "Image",
                                "license": "U"
                            },
                            "params": {
                                "contentName": "Image",
                                "file": {
                                    "copyright": {
                                        "license": "U"
                                    },
                                    "height": 37,
                                    "mime": "image/png",
                                    "path": "images/file-5c93ba47c1038.png",
                                    "width": 96
                                }
                            },
                            "subContentId": "746c614c-dadb-4ccc-821d-99a86eb28075"
                        },
                        "alwaysDisplayComments": false,
                        "backgroundOpacity": 0,
                        "buttonSize": "big",
                        "displayAsButton": false,
                        "goToSlideType": "specified",
                        "height": 11.011904761905,
                        "invisible": false,
                        "solution": "",
                        "width": 14.464348995813,
                        "x": 0,
                        "y": 88.392857142857
                    },
                    {
                        "action": {
                            "library": "H5P.AdvancedText 1.1",
                            "metadata": {
                                "authors": [],
                                "changes": [],
                                "contentType": "Text",
                                "extraTitle": "Sem título",
                                "license": "U",
                                "title": "Sem título"
                            },
                            "params": {
                                "text": "<p><span><span><span><span><span><span><span style=\"color:#262626\"><span>Este material foi produzido por </span></span></span></span><span><span><span style=\"color:#262626\"><span>conteudista</span></span></span></span><span><span><span style=\"color:#262626\"><span>(s) da Universidade </span></span></span></span><span><span><span style=\"color:#262626\"><span>de Brasília </span></span></span></span><span><span><span style=\"color:#262626\"><span>(UnB) exclusivamente para a Escola do Trabalhador.</span></span></span></span></span></span></span></span></p>\n\n<p><span><span><span><span><span><span><span style=\"color:#262626\"><span>Licença de uso e compartilhamento </span></span></span></span><span><span><span style=\"color:#262626\"><span>Creative</span></span></span></span> <span><span><span style=\"color:#262626\"><span>Commons</span></span></span></span><span><span><span style=\"color:#262626\"><span> Atribuição-Não </span></span></span></span><span><span><span style=\"color:#262626\"><span>Comercial – Sem Derivações 4.0 Internacional.</span></span></span></span></span></span></span></span></p>\n\n<p><span><span><span><span><span><span><span style=\"color:#262626\"><span>http://creativecommons.org/licenses/by-nc-nd/4.0/</span></span></span></span></span></span></span></span></p>\n"
                            },
                            "subContentId": "2bd1a954-1190-47a8-8e66-fd1c733bc620"
                        },
                        "alwaysDisplayComments": false,
                        "backgroundOpacity": 0,
                        "buttonSize": "big",
                        "displayAsButton": false,
                        "goToSlideType": "specified",
                        "height": 8.3333333333333,
                        "invisible": false,
                        "solution": "",
                        "width": 84.162895927602,
                        "x": 15.082956259427,
                        "y": 89.090476190476
                    },
                    {
                        "action": {
                            "library": "H5P.AdvancedText 1.1",
                            "metadata": {
                                "authors": [],
                                "changes": [],
                                "contentType": "Text",
                                "extraTitle": "Sem título",
                                "license": "U",
                                "title": "Sem título"
                            },
                            "params": {
                                "text": "<p><strong><span><span><span><span><span><span><span style=\"color:#262626\"><span><span>Coordenação do Projeto Qualifica Brasil</span></span></span></span></span></span></span></span></span></strong></p>\n\n<p><span><span><span><span><span><span><span style=\"color:#262626\"><span>Thérèse</span></span></span></span> <span><span><span style=\"color:#262626\"><span>Hofmann</span></span></span></span><span><span><span style=\"color:#262626\"><span> Gatti Rodrigues da Costa (Coordenadora Geral)</span></span></span></span></span></span></span></span></p>\n\n<p><span><span><span><span><span><span><span style=\"color:#262626\"><span>Wilsa</span></span></span></span><span><span><span style=\"color:#262626\"><span> Maria Ramos</span></span></span></span></span></span></span></span></p>\n\n<p><span><span><span><span><span><span><span style=\"color:#262626\"><span>Valdir Adilson </span></span></span></span><span><span><span style=\"color:#262626\"><span>Steinke</span></span></span></span></span></span></span></span></p>\n\n<p><span><span><span><span><span><span><span style=\"color:#262626\"><span>Luis</span></span></span></span><span><span><span style=\"color:#262626\"><span> Fernando Ramos </span></span></span></span><span><span><span style=\"color:#262626\"><span>Molinaro</span></span></span></span></span></span></span></span></p>\n\n<p><span><span><span><span><span><span><span style=\"color:#262626\"><span>Humberto Abdalla JúniorRafael Timóteo de Sousa Jr</span></span></span></span></span></span></span></span></p>\n"
                            },
                            "subContentId": "1129ea95-d5c2-4228-b0bf-a1a7f46c7b08"
                        },
                        "alwaysDisplayComments": false,
                        "backgroundOpacity": 0,
                        "buttonSize": "big",
                        "displayAsButton": false,
                        "goToSlideType": "specified",
                        "height": 70.833333333333,
                        "invisible": false,
                        "solution": "",
                        "width": 32.880844645551,
                        "x": 0,
                        "y": 14.880952380952
                    },
                    {
                        "action": {
                            "library": "H5P.AdvancedText 1.1",
                            "metadata": {
                                "authors": [],
                                "changes": [],
                                "contentType": "Text",
                                "extraTitle": "Sem título",
                                "license": "U",
                                "title": "Sem título"
                            },
                            "params": {
                                "text": "<p><strong><span><span><span><span><span><span><span style=\"color:#262626\"><span><span>Instituto Brasileiro de Informação em Ciência e Tecnologia – IBICT</span></span></span></span></span></span></span></span></span></strong></p>\n\n<p><span><span><span><span><span><span><span style=\"color:#262626\"><span>Cecília Leite - Diretora</span></span></span></span></span></span></span></span></p>\n\n<p><span><span><span><span><span><span><span style=\"color:#262626\"><span>Tiago Emmanuel Nunes Braga</span></span></span></span></span></span></span></span></p>\n\n<p><strong><span><span><span><span><span><span><span style=\"color:#262626\"><span><span>Realização</span></span></span></span></span></span></span></span></span></strong></p>\n\n<p><span><span><span><span><span><span><span style=\"color:#262626\"><span>Instituto de Artes (IDA-UnB), Instituto de Psicologia (IP-UnB), Instituto de Letras (LET-UnB), Departamento de Engenharia Elétrica (ENE – UnB), Departamento de Geografia (GEA – UnB), Faculdade de Ciência da Informação (FCI-UnB).</span></span></span></span></span></span></span></span></p>\n"
                            },
                            "subContentId": "f85f023d-fae3-4b40-9962-bc8a2f37dd49"
                        },
                        "alwaysDisplayComments": false,
                        "backgroundOpacity": 0,
                        "buttonSize": "big",
                        "displayAsButton": false,
                        "goToSlideType": "specified",
                        "height": 70.833333333333,
                        "invisible": false,
                        "solution": "",
                        "width": 32.880844645551,
                        "x": 33.182503770739,
                        "y": 11.904761904762
                    },
                    {
                        "action": {
                            "library": "H5P.AdvancedText 1.1",
                            "metadata": {
                                "authors": [],
                                "changes": [],
                                "contentType": "Text",
                                "extraTitle": "Sem título",
                                "license": "U",
                                "title": "Sem título"
                            },
                            "params": {
                                "text": "<p><strong><span><span><span><span><span><span><span style=\"color:#262626\"><span><span>Apoio </span></span></span></span></span></span></span></span></span></strong></p>\n\n<p><span><span><span><span><span><span><span style=\"color:#262626\"><span>Secretaria de Educação Profissional e Tecnológica (SETEC-MEC)</span></span></span></span></span></span></span></span></p>\n\n<p><strong><span><span><span><span><span><span><span style=\"color:#262626\"><span><span>Gestão de Negócios e Tecnologia da Informação</span></span></span></span></span></span></span></span></span></strong></p>\n\n<p><span><span><span><span><span><span><span style=\"color:#262626\"><span>Loureine</span></span></span></span> <span><span><span style=\"color:#262626\"><span>Rapôso</span></span></span></span><span><span><span style=\"color:#262626\"><span> Oliveira Garcez</span></span></span></span></span></span></span></span></p>\n\n<p><span><span><span><span><span><span><span style=\"color:#262626\"><span>Wellington Lima de Jesus Filho</span></span></span></span></span></span></span></span></p>\n\n<p><strong><span><span><span><span><span><span><span style=\"color:#262626\"><span><span>Coordenação da Unidade de Pedagogia</span></span></span></span></span></span></span></span></span></strong></p>\n\n<p><span><span><span><span><span><span><span style=\"color:#262626\"><span>Danielle Nogueira Pamplona</span></span></span></span></span></span></span></span></p>\n\n<p><span><span><span><span><span><span><span style=\"color:#262626\"><span>Lívia Veleda Sousa e Melo</span></span></span></span></span></span></span></span></p>\n"
                            },
                            "subContentId": "2fe303a5-fab1-4238-a6d7-8161492e2e9e"
                        },
                        "alwaysDisplayComments": false,
                        "backgroundOpacity": 0,
                        "buttonSize": "big",
                        "displayAsButton": false,
                        "goToSlideType": "specified",
                        "height": 76.785714285714,
                        "invisible": false,
                        "solution": "",
                        "width": 31.372549019608,
                        "x": 67.873303167421,
                        "y": 8.9006845238095
                    }
                ],
                "slideBackgroundSelector": {}
            },
            {
                "elements": [
                    {
                        "action": {
                            "library": "H5P.Image 1.0",
                            "metadata": {
                                "contentType": "Image",
                                "license": "U"
                            },
                            "params": {
                                "contentName": "Image",
                                "file": {
                                    "copyright": {
                                        "license": "U"
                                    },
                                    "height": 960,
                                    "mime": "image/png",
                                    "path": "images/file-5c93ba6ed2daa.png",
                                    "width": 1474
                                }
                            },
                            "subContentId": "717299aa-de3a-4545-9841-b5483cafbcc3"
                        },
                        "alwaysDisplayComments": false,
                        "backgroundOpacity": 0,
                        "buttonSize": "big",
                        "displayAsButton": false,
                        "goToSlideType": "specified",
                        "height": 69.642857142857,
                        "invisible": false,
                        "solution": "",
                        "width": 54.147812971342,
                        "x": 45.550527903469,
                        "y": 29.761904761905
                    },
                    {
                        "action": {
                            "library": "H5P.Image 1.0",
                            "metadata": {
                                "contentType": "Image",
                                "license": "U"
                            },
                            "params": {
                                "contentName": "Image",
                                "file": {
                                    "copyright": {
                                        "license": "U"
                                    },
                                    "height": 146,
                                    "mime": "image/png",
                                    "path": "images/file-5c93b8a8433ed.png",
                                    "width": 632
                                }
                            },
                            "subContentId": "469c42dc-d2aa-411c-8e21-b8aea64a008f"
                        },
                        "alwaysDisplayComments": false,
                        "backgroundOpacity": 0,
                        "buttonSize": "big",
                        "displayAsButton": false,
                        "goToSlideType": "specified",
                        "height": 14.285714285714,
                        "invisible": false,
                        "solution": "",
                        "width": 31.975867269985,
                        "x": 0,
                        "y": 0
                    },
                    {
                        "action": {
                            "library": "H5P.AdvancedText 1.1",
                            "metadata": {
                                "authors": [],
                                "changes": [],
                                "contentType": "Text",
                                "extraTitle": "Sem título",
                                "license": "U",
                                "title": "Sem título"
                            },
                            "params": {
                                "text": "<p><span style=\"font-size:2.25em;\"><span style=\"color:#ffffff;\">Ficha Técnica</span></span></p>\n"
                            },
                            "subContentId": "f1b499dd-93ac-46f3-99a5-541aaf229c93"
                        },
                        "alwaysDisplayComments": false,
                        "backgroundOpacity": 0,
                        "buttonSize": "big",
                        "displayAsButton": false,
                        "goToSlideType": "specified",
                        "height": 11.309523809524,
                        "invisible": false,
                        "solution": "",
                        "width": 28.355957767722,
                        "x": 1.2066365007541,
                        "y": 1.7764136904762
                    },
                    {
                        "action": {
                            "library": "H5P.Image 1.0",
                            "metadata": {
                                "contentType": "Image",
                                "license": "U"
                            },
                            "params": {
                                "contentName": "Image",
                                "file": {
                                    "copyright": {
                                        "license": "U"
                                    },
                                    "height": 37,
                                    "mime": "image/png",
                                    "path": "images/file-5c93ba47c1038.png",
                                    "width": 96
                                }
                            },
                            "subContentId": "746c614c-dadb-4ccc-821d-99a86eb28075"
                        },
                        "alwaysDisplayComments": false,
                        "backgroundOpacity": 0,
                        "buttonSize": "big",
                        "displayAsButton": false,
                        "goToSlideType": "specified",
                        "height": 11.011904761905,
                        "invisible": false,
                        "solution": "",
                        "width": 14.464348995813,
                        "x": 0,
                        "y": 88.392857142857
                    },
                    {
                        "action": {
                            "library": "H5P.AdvancedText 1.1",
                            "metadata": {
                                "authors": [],
                                "changes": [],
                                "contentType": "Text",
                                "extraTitle": "Sem título",
                                "license": "U",
                                "title": "Sem título"
                            },
                            "params": {
                                "text": "<p><span><span><span><span><span><span><span style=\"color:#262626\"><span>Este material foi produzido por </span></span></span></span><span><span><span style=\"color:#262626\"><span>conteudista</span></span></span></span><span><span><span style=\"color:#262626\"><span>(s) da Universidade </span></span></span></span><span><span><span style=\"color:#262626\"><span>de Brasília </span></span></span></span><span><span><span style=\"color:#262626\"><span>(UnB) exclusivamente para a Escola do Trabalhador.</span></span></span></span></span></span></span></span></p>\n\n<p><span><span><span><span><span><span><span style=\"color:#262626\"><span>Licença de uso e compartilhamento </span></span></span></span><span><span><span style=\"color:#262626\"><span>Creative</span></span></span></span> <span><span><span style=\"color:#262626\"><span>Commons</span></span></span></span><span><span><span style=\"color:#262626\"><span> Atribuição-Não </span></span></span></span><span><span><span style=\"color:#262626\"><span>Comercial – Sem Derivações 4.0 Internacional.</span></span></span></span></span></span></span></span></p>\n\n<p><span><span><span><span><span><span><span style=\"color:#262626\"><span>http://creativecommons.org/licenses/by-nc-nd/4.0/</span></span></span></span></span></span></span></span></p>\n"
                            },
                            "subContentId": "2bd1a954-1190-47a8-8e66-fd1c733bc620"
                        },
                        "alwaysDisplayComments": false,
                        "backgroundOpacity": 0,
                        "buttonSize": "big",
                        "displayAsButton": false,
                        "goToSlideType": "specified",
                        "height": 8.3333333333333,
                        "invisible": false,
                        "solution": "",
                        "width": 84.162895927602,
                        "x": 15.082956259427,
                        "y": 89.090476190476
                    },
                    {
                        "action": {
                            "library": "H5P.AdvancedText 1.1",
                            "metadata": {
                                "authors": [],
                                "changes": [],
                                "contentType": "Text",
                                "extraTitle": "Sem título",
                                "license": "U",
                                "title": "Sem título"
                            },
                            "params": {
                                "text": "<p><span style=\"font-size:0.75em;\"><strong><span style=\"color:#262626\">Gerente do Núcleo de Produção de Materiais</span></strong></span></p>\n\n<p><span style=\"font-size:0.75em;\"><span style=\"color:#262626\">Rute Nogueira de Morais Bicalho</span></span></p>\n\n<p><span style=\"font-size:0.75em;\"><strong><span style=\"color:#262626\">Autor</span></strong></span></p>\n\n<p><span style=\"font-size:0.75em;\"><span style=\"color:#262626\">Igor dos Santos Rodrigues </span></span></p>\n\n<p><span style=\"font-size:0.75em;\"><strong><span style=\"color:#262626\">Equipe de Designer Instrucional</span></strong></span></p>\n\n<p><span style=\"font-size:0.75em;\"><span style=\"color:#262626\">Rute Nogueira de Morais Bicalho</span></span></p>\n\n<p><span style=\"font-size:0.75em;\"><span style=\"color:#262626\">Janaína Angelina Teixeira</span></span></p>\n\n<p><span style=\"font-size:0.75em;\"><span style=\"color:#262626\">Márlon Cavalcanti Lima</span></span></p>\n\n<p><span style=\"font-size:0.75em;\"><span style=\"color:#262626\">Simone Escalante</span> <span style=\"color:#262626\">Bordallo</span></span></p>\n"
                            },
                            "subContentId": "1129ea95-d5c2-4228-b0bf-a1a7f46c7b08"
                        },
                        "alwaysDisplayComments": false,
                        "backgroundOpacity": 0,
                        "buttonSize": "big",
                        "displayAsButton": false,
                        "goToSlideType": "specified",
                        "height": 70.833333333333,
                        "invisible": false,
                        "solution": "",
                        "width": 32.880844645551,
                        "x": 0,
                        "y": 14.880952380952
                    },
                    {
                        "action": {
                            "library": "H5P.AdvancedText 1.1",
                            "metadata": {
                                "authors": [],
                                "changes": [],
                                "contentType": "Text",
                                "extraTitle": "Sem título",
                                "license": "U",
                                "title": "Sem título"
                            },
                            "params": {
                                "text": "<p><span style=\"font-size:0.75em;\"><span style=\"color:#262626\">Virgínia Maria Soares de Almeida</span></span></p>\n\n<p><span style=\"font-size:0.75em;\"><span style=\"color:#262626\">Marcus Vinicius Carneiro Magalhães</span></span></p>\n\n<p><span style=\"font-size:0.75em;\"><strong><span style=\"color:#262626\">Revisor ortográfico</span></strong></span></p>\n\n<p><span style=\"font-size:0.75em;\"><span style=\"color:#262626\">Samantha Resende Nascimento</span></span></p>\n\n<p><span style=\"font-size:0.75em;\"><strong><span style=\"color:#262626\">Ilustrador</span></strong></span></p>\n\n<p><span style=\"font-size:0.75em;\"><span style=\"color:#262626\">Ana Maria Silva Sena Pereira</span></span></p>\n\n<p><span style=\"font-size:0.75em;\"><strong><span style=\"color:#262626\">Desenvolvedor de Vídeos Animados</span></strong></span></p>\n\n<p><span style=\"font-size:0.75em;\"><span style=\"color:#262626\">Paulo Fernando Santos Nisio</span></span></p>\n\n<p><span style=\"font-size:0.75em;\">&nbsp;</span></p>\n"
                            },
                            "subContentId": "f85f023d-fae3-4b40-9962-bc8a2f37dd49"
                        },
                        "alwaysDisplayComments": false,
                        "backgroundOpacity": 0,
                        "buttonSize": "big",
                        "displayAsButton": false,
                        "goToSlideType": "specified",
                        "height": 70.833333333333,
                        "invisible": false,
                        "solution": "",
                        "width": 32.880844645551,
                        "x": 33.182503770739,
                        "y": 11.904761904762
                    },
                    {
                        "action": {
                            "library": "H5P.AdvancedText 1.1",
                            "metadata": {
                                "authors": [],
                                "changes": [],
                                "contentType": "Text",
                                "extraTitle": "Sem título",
                                "license": "U",
                                "title": "Sem título"
                            },
                            "params": {
                                "text": "<p><span style=\"font-size:0.75em;\"><strong><span style=\"color:#262626\">Desenvolvedor de Ambiente Virtual de Aprendizagem</span></strong></span></p>\n\n<p><span style=\"font-size:0.75em;\"><span style=\"color:#262626\">Osvaldo Corrêa</span></span></p>\n\n<p><span style=\"font-size:0.75em;\"><strong><span style=\"color:#262626\">Projeto Gráfico </span></strong></span></p>\n\n<p><span style=\"font-size:0.75em;\"><span style=\"color:#262626\">Márlon Cavalcanti Lima</span></span></p>\n"
                            },
                            "subContentId": "2fe303a5-fab1-4238-a6d7-8161492e2e9e"
                        },
                        "alwaysDisplayComments": false,
                        "backgroundOpacity": 0,
                        "buttonSize": "big",
                        "displayAsButton": false,
                        "goToSlideType": "specified",
                        "height": 76.785714285714,
                        "invisible": false,
                        "solution": "",
                        "width": 31.372549019608,
                        "x": 67.873303167421,
                        "y": 8.9006845238095
                    }
                ],
                "slideBackgroundSelector": {}
            },
            {
                "elements": [
                    {
                        "action": {
                            "library": "H5P.AdvancedText 1.1",
                            "metadata": {
                                "authors": [],
                                "changes": [],
                                "contentType": "Text",
                                "extraTitle": "Sem título",
                                "license": "U",
                                "title": "Sem título"
                            },
                            "params": {
                                "text": "<h2><span><span style=\"font-size:1.75em;\">O que você vai estudar</span></span></h2>\n"
                            },
                            "subContentId": "525757d1-145c-4c18-be35-8c02a27712ec"
                        },
                        "alwaysDisplayComments": false,
                        "backgroundOpacity": 0,
                        "buttonSize": "big",
                        "displayAsButton": false,
                        "goToSlideType": "specified",
                        "height": 14.285714285714,
                        "invisible": false,
                        "solution": "",
                        "width": 61.538461538462,
                        "x": 18.552036199095,
                        "y": 6.8452380952381
                    },
                    {
                        "action": {
                            "library": "H5P.AdvancedText 1.1",
                            "metadata": {
                                "authors": [],
                                "changes": [],
                                "contentType": "Text",
                                "extraTitle": "Sem título",
                                "license": "U",
                                "title": "Sem título"
                            },
                            "params": {
                                "text": "<h2><span style=\"font-size:1.75em;\"><span style=\"color:#ffffff;\">O que você vai estudar</span></span></h2>\n"
                            },
                            "subContentId": "a09f683f-bd6b-4942-be9a-79b05801b271"
                        },
                        "alwaysDisplayComments": false,
                        "backgroundOpacity": 0,
                        "buttonSize": "big",
                        "displayAsButton": false,
                        "goToSlideType": "specified",
                        "height": 14.285714285714,
                        "invisible": false,
                        "solution": "",
                        "width": 61.538461538462,
                        "x": 18.099547511312,
                        "y": 5.952380952381
                    },
                    {
                        "action": {
                            "library": "H5P.Image 1.0",
                            "metadata": {
                                "contentType": "Image",
                                "license": "U"
                            },
                            "params": {
                                "contentName": "Image",
                                "file": {
                                    "copyright": {
                                        "license": "U"
                                    },
                                    "height": 510,
                                    "mime": "image/png",
                                    "path": "images/file-5c93cb9882f1e.png",
                                    "width": 848
                                }
                            },
                            "subContentId": "c284bea6-1f05-473f-9e75-6875031f8e6c"
                        },
                        "alwaysDisplayComments": false,
                        "backgroundOpacity": 0,
                        "buttonSize": "big",
                        "displayAsButton": false,
                        "goToSlideType": "specified",
                        "height": 40,
                        "invisible": false,
                        "solution": "",
                        "width": 33.670735544762,
                        "x": 55.806938159879,
                        "y": 20.833333333333
                    },
                    {
                        "action": {
                            "library": "H5P.Image 1.0",
                            "metadata": {
                                "contentType": "Image",
                                "license": "U"
                            },
                            "params": {
                                "contentName": "Image",
                                "file": {
                                    "copyright": {
                                        "license": "U"
                                    },
                                    "height": 504,
                                    "mime": "image/png",
                                    "path": "images/file-5c93cba698b4f.png",
                                    "width": 848
                                }
                            },
                            "subContentId": "4ec64189-8f61-43fb-98f4-85ce857cdbc4"
                        },
                        "alwaysDisplayComments": false,
                        "backgroundOpacity": 0,
                        "buttonSize": "big",
                        "displayAsButton": false,
                        "goToSlideType": "specified",
                        "height": 40,
                        "invisible": false,
                        "solution": "",
                        "width": 34.071577634581,
                        "x": 31.674208144796,
                        "y": 59.52380952381
                    },
                    {
                        "action": {
                            "library": "H5P.AdvancedText 1.1",
                            "metadata": {
                                "authors": [],
                                "changes": [],
                                "contentType": "Text",
                                "extraTitle": "Sem título",
                                "license": "U",
                                "title": "Sem título"
                            },
                            "params": {
                                "text": "<h2><strong><span style=\"color:#ffffff;\">Tema 1</span></strong></h2>\n"
                            },
                            "subContentId": "42293371-e678-4390-928b-913a3ebc536b"
                        },
                        "alwaysDisplayComments": false,
                        "backgroundOpacity": 0,
                        "buttonSize": "big",
                        "displayAsButton": false,
                        "goToSlideType": "specified",
                        "height": 8.3333333333333,
                        "invisible": false,
                        "solution": "",
                        "width": 11.764705882353,
                        "x": 16.59125188537,
                        "y": 20.786845238095
                    },
                    {
                        "action": {
                            "library": "H5P.AdvancedText 1.1",
                            "metadata": {
                                "authors": [],
                                "changes": [],
                                "contentType": "Text",
                                "extraTitle": "Sem título",
                                "license": "U",
                                "title": "Sem título"
                            },
                            "params": {
                                "text": "<h2><strong><span style=\"color:#ffffff;\">Tema 2</span></strong></h2>\n"
                            },
                            "subContentId": "568faa0a-0b75-424c-9f43-7f49a30676e9"
                        },
                        "alwaysDisplayComments": false,
                        "backgroundOpacity": 0,
                        "buttonSize": "big",
                        "displayAsButton": false,
                        "goToSlideType": "specified",
                        "height": 8.3333333333333,
                        "invisible": false,
                        "solution": "",
                        "width": 11.764705882353,
                        "x": 67.873303167421,
                        "y": 20.833333333333
                    },
                    {
                        "action": {
                            "library": "H5P.AdvancedText 1.1",
                            "metadata": {
                                "authors": [],
                                "changes": [],
                                "contentType": "Text",
                                "extraTitle": "Sem título",
                                "license": "U",
                                "title": "Sem título"
                            },
                            "params": {
                                "text": "<h2><strong><span style=\"color:#ffffff;\">Tema 3</span></strong></h2>\n"
                            },
                            "subContentId": "04dcbfa6-4a55-423b-a8ae-906eba73bdc8"
                        },
                        "alwaysDisplayComments": false,
                        "backgroundOpacity": 0,
                        "buttonSize": "big",
                        "displayAsButton": false,
                        "goToSlideType": "specified",
                        "height": 8.3333333333333,
                        "invisible": false,
                        "solution": "",
                        "width": 11.764705882353,
                        "x": 43.740573152338,
                        "y": 59.52380952381
                    },
                    {
                        "action": {
                            "library": "H5P.Image 1.0",
                            "metadata": {
                                "contentType": "Image",
                                "license": "U"
                            },
                            "params": {
                                "contentName": "Image",
                                "file": {
                                    "copyright": {
                                        "license": "U"
                                    },
                                    "height": 507,
                                    "mime": "image/png",
                                    "path": "images/file-5c93cb8cbbde9.png",
                                    "width": 848
                                }
                            },
                            "subContentId": "ecb716ba-c180-4b8e-a72f-988b37e39352"
                        },
                        "alwaysDisplayComments": false,
                        "backgroundOpacity": 0,
                        "buttonSize": "big",
                        "displayAsButton": false,
                        "goToSlideType": "specified",
                        "height": 40,
                        "invisible": false,
                        "solution": "",
                        "width": 33.869970666329,
                        "x": 6.0331825037707,
                        "y": 20.833333333333
                    },
                    {
                        "action": {
                            "library": "H5P.AdvancedText 1.1",
                            "metadata": {
                                "authors": [],
                                "changes": [],
                                "contentType": "Text",
                                "extraTitle": "Sem título",
                                "license": "U",
                                "title": "Sem título"
                            },
                            "params": {
                                "text": "<h2><strong><span style=\"color:#ffffff;\">Tema 1</span></strong></h2>\n"
                            },
                            "subContentId": "80de0bc3-ff09-475f-94be-f8de0e3b1801"
                        },
                        "alwaysDisplayComments": false,
                        "backgroundOpacity": 0,
                        "buttonSize": "big",
                        "displayAsButton": false,
                        "goToSlideType": "specified",
                        "height": 8.3333333333333,
                        "invisible": false,
                        "solution": "",
                        "width": 11.764705882353,
                        "x": 16.59125188537,
                        "y": 20.833333333333
                    },
                    {
                        "action": {
                            "library": "H5P.AdvancedText 1.1",
                            "metadata": {
                                "authors": [],
                                "changes": [],
                                "contentType": "Text",
                                "extraTitle": "Sem título",
                                "license": "U",
                                "title": "Sem título"
                            },
                            "params": {
                                "text": "<p style=\"text-align: center;\"><span style=\"font-size:1.25em;\"><span style=\"color:#3b3838\">Introdução ao assunto</span></span></p>\n\n<p style=\"text-align: center;\"><span style=\"font-size:1.25em;\"><span style=\"color:#3b3838\">Segurança da Informação</span></span></p>\n"
                            },
                            "subContentId": "8d6ea09d-7bb3-4cc7-ac5d-221d4385aa79"
                        },
                        "alwaysDisplayComments": false,
                        "backgroundOpacity": 0,
                        "buttonSize": "big",
                        "displayAsButton": false,
                        "goToSlideType": "specified",
                        "height": 23.214285714286,
                        "invisible": false,
                        "solution": "",
                        "width": 28.355957767722,
                        "x": 9.0497737556561,
                        "y": 32.738095238095
                    },
                    {
                        "action": {
                            "library": "H5P.AdvancedText 1.1",
                            "metadata": {
                                "authors": [],
                                "changes": [],
                                "contentType": "Text",
                                "extraTitle": "Sem título",
                                "license": "U",
                                "title": "Sem título"
                            },
                            "params": {
                                "text": "<p style=\"text-align: center;\"><span style=\"font-size:1.25em;\"><span style=\"color:#3b3838\">Princípios e conceitos da </span></span></p>\n\n<p style=\"text-align: center;\"><span style=\"font-size:1.25em;\"><span style=\"color:#3b3838\">Segurança da Informação</span></span></p>\n"
                            },
                            "subContentId": "2c00f9e8-9ddd-4201-93cd-d933371bb8be"
                        },
                        "alwaysDisplayComments": false,
                        "backgroundOpacity": 0,
                        "buttonSize": "big",
                        "displayAsButton": false,
                        "goToSlideType": "specified",
                        "height": 23.214285714286,
                        "invisible": false,
                        "solution": "",
                        "width": 28.355957767722,
                        "x": 58.823529411765,
                        "y": 32.738095238095
                    },
                    {
                        "action": {
                            "library": "H5P.AdvancedText 1.1",
                            "metadata": {
                                "authors": [],
                                "changes": [],
                                "contentType": "Text",
                                "extraTitle": "Sem título",
                                "license": "U",
                                "title": "Sem título"
                            },
                            "params": {
                                "text": "<p style=\"text-align: center;\"><span style=\"font-size:1.25em;\"><span style=\"color:#3b3838\">Gestão de processos de </span></span></p>\n\n<p style=\"text-align: center;\"><span style=\"font-size:1.25em;\"><span style=\"color:#3b3838\">segurança</span></span></p>\n"
                            },
                            "subContentId": "0b24ad48-e40f-439c-be20-1cdbab3904c7"
                        },
                        "alwaysDisplayComments": false,
                        "backgroundOpacity": 0,
                        "buttonSize": "big",
                        "displayAsButton": false,
                        "goToSlideType": "specified",
                        "height": 20.238095238095,
                        "invisible": false,
                        "solution": "",
                        "width": 28.355957767722,
                        "x": 34.690799396682,
                        "y": 74.2375
                    }
                ],
                "slideBackgroundSelector": {
                    "fillSlideBackground": "#2f94a7"
                }
            },
            {
                "elements": [
                    {
                        "action": {
                            "library": "H5P.Image 1.0",
                            "metadata": {
                                "contentType": "Image"
                            },
                            "params": {
                                "contentName": "Image",
                                "file": {
                                    "copyright": {
                                        "license": "U"
                                    },
                                    "height": 960,
                                    "mime": "image/png",
                                    "path": "images/file-5c93cd67520db.png#tmp",
                                    "width": 1474
                                }
                            },
                            "subContentId": "c2fe6fd8-4ef6-4d6d-894a-c4dca0b74219"
                        },
                        "alwaysDisplayComments": false,
                        "backgroundOpacity": 0,
                        "buttonSize": "big",
                        "displayAsButton": false,
                        "goToSlideType": "specified",
                        "height": 67.559523809524,
                        "invisible": false,
                        "solution": "",
                        "width": 52.488687782805,
                        "x": 47.209653092006,
                        "y": 31.845238095238
                    },
                    {
                        "action": {
                            "library": "H5P.Image 1.0",
                            "metadata": {
                                "contentType": "Image"
                            },
                            "params": {
                                "contentName": "Image",
                                "file": {
                                    "copyright": {
                                        "license": "U"
                                    },
                                    "height": 873,
                                    "mime": "image/png",
                                    "path": "images/file-5c93ccbf75730.png#tmp",
                                    "width": 1623
                                }
                            },
                            "subContentId": "06f59389-4c78-4e5d-a1b7-409479ee6186"
                        },
                        "alwaysDisplayComments": false,
                        "backgroundOpacity": 0,
                        "buttonSize": "big",
                        "displayAsButton": false,
                        "goToSlideType": "specified",
                        "height": 53.869047619048,
                        "invisible": false,
                        "solution": "",
                        "width": 50.980392156863,
                        "x": 0,
                        "y": 0
                    },
                    {
                        "action": {
                            "library": "H5P.Image 1.0",
                            "metadata": {
                                "contentType": "Image"
                            },
                            "params": {
                                "contentName": "Image",
                                "file": {
                                    "copyright": {
                                        "license": "U"
                                    },
                                    "height": 674,
                                    "mime": "image/png",
                                    "path": "images/file-5c93ccd5f19d9.png#tmp",
                                    "width": 670
                                }
                            },
                            "subContentId": "f9f7effb-5867-4bf1-b689-3c0013d5faff"
                        },
                        "alwaysDisplayComments": false,
                        "backgroundOpacity": 0,
                        "buttonSize": "big",
                        "displayAsButton": false,
                        "goToSlideType": "specified",
                        "height": 29.464285714286,
                        "invisible": false,
                        "solution": "",
                        "width": 14.781297134238,
                        "x": 0,
                        "y": 0
                    },
                    {
                        "action": {
                            "library": "H5P.AdvancedText 1.1",
                            "metadata": {
                                "authors": [],
                                "changes": [],
                                "contentType": "Text",
                                "extraTitle": "Sem título",
                                "license": "U",
                                "title": "Sem título"
                            },
                            "params": {
                                "text": "<h2 style=\"text-align: center;\"><strong><span style=\"font-size:1.75em;\">Este material está disponível</span></strong></h2>\n\n<h2 style=\"text-align: center;\"><strong><span style=\"font-size:1.75em;\">em extensão PDF</span></strong></h2>\n"
                            },
                            "subContentId": "3f332ac6-1c96-4f49-bd56-d6c831da6767"
                        },
                        "alwaysDisplayComments": false,
                        "backgroundOpacity": 0,
                        "buttonSize": "big",
                        "displayAsButton": false,
                        "goToSlideType": "specified",
                        "height": 29.166666666667,
                        "invisible": false,
                        "solution": "",
                        "width": 82.654600301659,
                        "x": 7.5414781297134,
                        "y": 29.69681547619
                    },
                    {
                        "action": {
                            "library": "H5P.AdvancedText 1.1",
                            "metadata": {
                                "authors": [],
                                "changes": [],
                                "contentType": "Text",
                                "extraTitle": "Sem título",
                                "license": "U",
                                "title": "Sem título"
                            },
                            "params": {
                                "text": "<h2 style=\"text-align: center;\"><span style=\"font-size:1.25em;\"><span style=\"background-color: rgb(218, 227, 243);\">&nbsp; &nbsp; Para realizar o download, clique aqui &nbsp; &nbsp;</span></span></h2>\n"
                            },
                            "subContentId": "64430234-779a-4089-a3d9-f77892e50d7d"
                        },
                        "alwaysDisplayComments": false,
                        "backgroundOpacity": 0,
                        "buttonSize": "big",
                        "displayAsButton": false,
                        "goToSlideType": "specified",
                        "height": 11.309523809524,
                        "invisible": false,
                        "solution": "",
                        "width": 87.179487179487,
                        "x": 7.5414781297134,
                        "y": 62.5
                    },
                    {
                        "action": {
                            "library": "H5P.Image 1.0",
                            "metadata": {
                                "contentType": "Image"
                            },
                            "params": {
                                "contentName": "Image",
                                "file": {
                                    "copyright": {
                                        "license": "U"
                                    },
                                    "height": 125,
                                    "mime": "image/png",
                                    "path": "images/file-5c93cd77445f3.png#tmp",
                                    "width": 483
                                }
                            },
                            "subContentId": "6b167ee7-398b-439f-87cd-c3a507ba0fd8"
                        },
                        "alwaysDisplayComments": false,
                        "backgroundOpacity": 0,
                        "buttonSize": "big",
                        "displayAsButton": false,
                        "goToSlideType": "specified",
                        "height": 17.559523809524,
                        "invisible": false,
                        "solution": "",
                        "width": 34.389140271493,
                        "x": 65.309200603318,
                        "y": 81.845238095238
                    }
                ],
                "keywords": [],
                "slideBackgroundSelector": {}
            }
        ]
    }
}